…
# get a data.frame of qvalues for each sector of the domain
> ldply(contacts, function(d) d$Z_STATISTICS$OBSERVED$Q) %>% tibble::as.tibble()
# # A tibble: 77 x 5
#    .id         CORNER  FORWARD   REVERSE    OTHER
#    <chr>        <dbl>    <dbl>     <dbl>    <dbl>
#  1 2012:2012 1.00e+ 0 1.48e- 4 0.        1.00e+ 0
#  2 2013:2013 1.00e+ 0 1.00e+ 0 1.00e+  0 3.30e-21
#  3 2015:2015 1.00e+ 0 4.75e-65 1.00e+  0 1.00e+ 0
#  4 2017:2017 1.32e-52 1.00e+ 0 8.29e-  2 8.92e- 1
#  5 2019:2019 1.27e- 8 1.00e+ 0 9.79e-209 1.00e+ 0
#  6 2021:2021 4.54e-14 3.54e- 3 1.00e+  0 1.00e+ 0
#  7 2022:2022 1.00e+ 0 1.00e+ 0 1.00e+  0 6.35e-60
#  8 2023:2023 1.00e+ 0 1.00e+ 0 1.00e+  0 1.33e-11
#  9 2024:2024 4.34e-62 1.00e+ 0 1.15e-186 1.00e+ 0
# 10 2026:2026 5.88e-55 2.54e-25 1.00e+  0 1.00e+ 0
# # ... with 67 more rows
…
